%YAML 1.1
%TAG !u! tag:unity3d.com,2011:
--- !u!29 &1
OcclusionCullingSettings:
  m_ObjectHideFlags: 0
  serializedVersion: 2
  m_OcclusionBakeSettings:
    smallestOccluder: 5
    smallestHole: 0.25
    backfaceThreshold: 100
  m_SceneGUID: 00000000000000000000000000000000
  m_OcclusionCullingData: {fileID: 0}
--- !u!104 &2
RenderSettings:
  m_ObjectHideFlags: 0
  serializedVersion: 9
  m_Fog: 0
  m_FogColor: {r: 0.5, g: 0.5, b: 0.5, a: 1}
  m_FogMode: 3
  m_FogDensity: 0.01
  m_LinearFogStart: 0
  m_LinearFogEnd: 300
  m_AmbientSkyColor: {r: 0.212, g: 0.227, b: 0.259, a: 1}
  m_AmbientEquatorColor: {r: 0.114, g: 0.125, b: 0.133, a: 1}
  m_AmbientGroundColor: {r: 0.047, g: 0.043, b: 0.035, a: 1}
  m_AmbientIntensity: 1
  m_AmbientMode: 0
  m_SubtractiveShadowColor: {r: 0.42, g: 0.478, b: 0.627, a: 1}
  m_SkyboxMaterial: {fileID: 10304, guid: 0000000000000000f000000000000000, type: 0}
  m_HaloStrength: 0.5
  m_FlareStrength: 1
  m_FlareFadeSpeed: 3
  m_HaloTexture: {fileID: 0}
  m_SpotCookie: {fileID: 10001, guid: 0000000000000000e000000000000000, type: 0}
  m_DefaultReflectionMode: 0
  m_DefaultReflectionResolution: 128
  m_ReflectionBounces: 1
  m_ReflectionIntensity: 1
  m_CustomReflection: {fileID: 0}
  m_Sun: {fileID: 0}
  m_IndirectSpecularColor: {r: 0, g: 0, b: 0, a: 1}
  m_UseRadianceAmbientProbe: 0
--- !u!157 &3
LightmapSettings:
  m_ObjectHideFlags: 0
  serializedVersion: 11
  m_GIWorkflowMode: 1
  m_GISettings:
    serializedVersion: 2
    m_BounceScale: 1
    m_IndirectOutputScale: 1
    m_AlbedoBoost: 1
    m_EnvironmentLightingMode: 0
    m_EnableBakedLightmaps: 1
    m_EnableRealtimeLightmaps: 0
  m_LightmapEditorSettings:
    serializedVersion: 12
    m_Resolution: 2
    m_BakeResolution: 40
    m_AtlasSize: 1024
    m_AO: 0
    m_AOMaxDistance: 1
    m_CompAOExponent: 1
    m_CompAOExponentDirect: 0
    m_ExtractAmbientOcclusion: 0
    m_Padding: 2
    m_LightmapParameters: {fileID: 0}
    m_LightmapsBakeMode: 1
    m_TextureCompression: 1
    m_FinalGather: 0
    m_FinalGatherFiltering: 1
    m_FinalGatherRayCount: 256
    m_ReflectionCompression: 2
    m_MixedBakeMode: 2
    m_BakeBackend: 1
    m_PVRSampling: 1
    m_PVRDirectSampleCount: 32
    m_PVRSampleCount: 512
    m_PVRBounces: 2
    m_PVREnvironmentSampleCount: 256
    m_PVREnvironmentReferencePointCount: 2048
    m_PVRFilteringMode: 1
    m_PVRDenoiserTypeDirect: 1
    m_PVRDenoiserTypeIndirect: 1
    m_PVRDenoiserTypeAO: 1
    m_PVRFilterTypeDirect: 0
    m_PVRFilterTypeIndirect: 0
    m_PVRFilterTypeAO: 0
    m_PVREnvironmentMIS: 1
    m_PVRCulling: 1
    m_PVRFilteringGaussRadiusDirect: 1
    m_PVRFilteringGaussRadiusIndirect: 5
    m_PVRFilteringGaussRadiusAO: 2
    m_PVRFilteringAtrousPositionSigmaDirect: 0.5
    m_PVRFilteringAtrousPositionSigmaIndirect: 2
    m_PVRFilteringAtrousPositionSigmaAO: 1
    m_ExportTrainingData: 0
    m_TrainingDataDestination: TrainingData
    m_LightProbeSampleCountMultiplier: 4
  m_LightingDataAsset: {fileID: 0}
  m_UseShadowmask: 1
--- !u!196 &4
NavMeshSettings:
  serializedVersion: 2
  m_ObjectHideFlags: 0
  m_BuildSettings:
    serializedVersion: 2
    agentTypeID: 0
    agentRadius: 0.5
    agentHeight: 2
    agentSlope: 45
    agentClimb: 0.4
    ledgeDropHeight: 0
    maxJumpAcrossDistance: 0
    minRegionArea: 2
    manualCellSize: 0
    cellSize: 0.16666667
    manualTileSize: 0
    tileSize: 256
    accuratePlacement: 0
    debug:
      m_Flags: 0
  m_NavMeshData: {fileID: 0}
--- !u!1001 &60938791
PrefabInstance:
  m_ObjectHideFlags: 0
  serializedVersion: 2
  m_Modification:
    m_TransformParent: {fileID: 0}
    m_Modifications:
    - target: {fileID: 8467935237938711601, guid: 82de04b8a1061c149b44360940287101,
        type: 3}
      propertyPath: m_Name
      value: PlayerObject
      objectReference: {fileID: 0}
    - target: {fileID: 8467935237938711603, guid: 82de04b8a1061c149b44360940287101,
        type: 3}
      propertyPath: m_CollisionDetection
      value: 0
      objectReference: {fileID: 0}
    - target: {fileID: 8467935237938711607, guid: 82de04b8a1061c149b44360940287101,
        type: 3}
      propertyPath: m_LocalPosition.x
      value: 0
      objectReference: {fileID: 0}
    - target: {fileID: 8467935237938711607, guid: 82de04b8a1061c149b44360940287101,
        type: 3}
      propertyPath: m_LocalPosition.y
      value: 2
      objectReference: {fileID: 0}
    - target: {fileID: 8467935237938711607, guid: 82de04b8a1061c149b44360940287101,
        type: 3}
      propertyPath: m_LocalPosition.z
      value: 0
      objectReference: {fileID: 0}
    - target: {fileID: 8467935237938711607, guid: 82de04b8a1061c149b44360940287101,
        type: 3}
      propertyPath: m_LocalRotation.x
      value: 0
      objectReference: {fileID: 0}
    - target: {fileID: 8467935237938711607, guid: 82de04b8a1061c149b44360940287101,
        type: 3}
      propertyPath: m_LocalRotation.y
      value: 0
      objectReference: {fileID: 0}
    - target: {fileID: 8467935237938711607, guid: 82de04b8a1061c149b44360940287101,
        type: 3}
      propertyPath: m_LocalRotation.z
      value: 0
      objectReference: {fileID: 0}
    - target: {fileID: 8467935237938711607, guid: 82de04b8a1061c149b44360940287101,
        type: 3}
      propertyPath: m_LocalRotation.w
      value: 1
      objectReference: {fileID: 0}
    - target: {fileID: 8467935237938711607, guid: 82de04b8a1061c149b44360940287101,
        type: 3}
      propertyPath: m_RootOrder
      value: 0
      objectReference: {fileID: 0}
    - target: {fileID: 8467935237938711607, guid: 82de04b8a1061c149b44360940287101,
        type: 3}
      propertyPath: m_LocalEulerAnglesHint.x
      value: 0
      objectReference: {fileID: 0}
    - target: {fileID: 8467935237938711607, guid: 82de04b8a1061c149b44360940287101,
        type: 3}
      propertyPath: m_LocalEulerAnglesHint.y
      value: 0
      objectReference: {fileID: 0}
    - target: {fileID: 8467935237938711607, guid: 82de04b8a1061c149b44360940287101,
        type: 3}
      propertyPath: m_LocalEulerAnglesHint.z
      value: 0
      objectReference: {fileID: 0}
    m_RemovedComponents: []
  m_SourcePrefab: {fileID: 100100000, guid: 82de04b8a1061c149b44360940287101, type: 3}
--- !u!1001 &224074057
PrefabInstance:
  m_ObjectHideFlags: 0
  serializedVersion: 2
  m_Modification:
    m_TransformParent: {fileID: 0}
    m_Modifications:
    - target: {fileID: 480768314018273264, guid: 2a814d2610756b948a2bebac2e0b83e8,
        type: 3}
      propertyPath: m_LocalPosition.x
      value: 0
      objectReference: {fileID: 0}
    - target: {fileID: 480768314018273264, guid: 2a814d2610756b948a2bebac2e0b83e8,
        type: 3}
      propertyPath: m_LocalPosition.y
      value: 1
      objectReference: {fileID: 0}
    - target: {fileID: 480768314018273264, guid: 2a814d2610756b948a2bebac2e0b83e8,
        type: 3}
      propertyPath: m_LocalPosition.z
      value: 100
      objectReference: {fileID: 0}
    - target: {fileID: 480768314018273264, guid: 2a814d2610756b948a2bebac2e0b83e8,
        type: 3}
      propertyPath: m_LocalRotation.x
      value: 0
      objectReference: {fileID: 0}
    - target: {fileID: 480768314018273264, guid: 2a814d2610756b948a2bebac2e0b83e8,
        type: 3}
      propertyPath: m_LocalRotation.y
      value: 0
      objectReference: {fileID: 0}
    - target: {fileID: 480768314018273264, guid: 2a814d2610756b948a2bebac2e0b83e8,
        type: 3}
      propertyPath: m_LocalRotation.z
      value: 0
      objectReference: {fileID: 0}
    - target: {fileID: 480768314018273264, guid: 2a814d2610756b948a2bebac2e0b83e8,
        type: 3}
      propertyPath: m_LocalRotation.w
      value: 1
      objectReference: {fileID: 0}
    - target: {fileID: 480768314018273264, guid: 2a814d2610756b948a2bebac2e0b83e8,
        type: 3}
      propertyPath: m_RootOrder
      value: 7
      objectReference: {fileID: 0}
    - target: {fileID: 480768314018273264, guid: 2a814d2610756b948a2bebac2e0b83e8,
        type: 3}
      propertyPath: m_LocalEulerAnglesHint.x
      value: 0
      objectReference: {fileID: 0}
    - target: {fileID: 480768314018273264, guid: 2a814d2610756b948a2bebac2e0b83e8,
        type: 3}
      propertyPath: m_LocalEulerAnglesHint.y
      value: 0
      objectReference: {fileID: 0}
    - target: {fileID: 480768314018273264, guid: 2a814d2610756b948a2bebac2e0b83e8,
        type: 3}
      propertyPath: m_LocalEulerAnglesHint.z
      value: 0
      objectReference: {fileID: 0}
    - target: {fileID: 480768314018273277, guid: 2a814d2610756b948a2bebac2e0b83e8,
        type: 3}
      propertyPath: m_Name
      value: Exit
      objectReference: {fileID: 0}
    m_RemovedComponents: []
  m_SourcePrefab: {fileID: 100100000, guid: 2a814d2610756b948a2bebac2e0b83e8, type: 3}
--- !u!1001 &257585455
PrefabInstance:
  m_ObjectHideFlags: 0
  serializedVersion: 2
  m_Modification:
    m_TransformParent: {fileID: 0}
    m_Modifications:
    - target: {fileID: 1687638280946574106, guid: 135efcaab013b0e428013bcda69b4e52,
        type: 3}
      propertyPath: m_Name
      value: Platform_1
      objectReference: {fileID: 0}
    - target: {fileID: 1687638280946574110, guid: 135efcaab013b0e428013bcda69b4e52,
        type: 3}
      propertyPath: m_LocalPosition.x
      value: 0
      objectReference: {fileID: 0}
    - target: {fileID: 1687638280946574110, guid: 135efcaab013b0e428013bcda69b4e52,
        type: 3}
      propertyPath: m_LocalPosition.y
      value: 0
      objectReference: {fileID: 0}
    - target: {fileID: 1687638280946574110, guid: 135efcaab013b0e428013bcda69b4e52,
        type: 3}
      propertyPath: m_LocalPosition.z
      value: 0
      objectReference: {fileID: 0}
    - target: {fileID: 1687638280946574110, guid: 135efcaab013b0e428013bcda69b4e52,
        type: 3}
      propertyPath: m_LocalRotation.x
      value: 0
      objectReference: {fileID: 0}
    - target: {fileID: 1687638280946574110, guid: 135efcaab013b0e428013bcda69b4e52,
        type: 3}
      propertyPath: m_LocalRotation.y
      value: 0
      objectReference: {fileID: 0}
    - target: {fileID: 1687638280946574110, guid: 135efcaab013b0e428013bcda69b4e52,
        type: 3}
      propertyPath: m_LocalRotation.z
      value: 0
      objectReference: {fileID: 0}
    - target: {fileID: 1687638280946574110, guid: 135efcaab013b0e428013bcda69b4e52,
        type: 3}
      propertyPath: m_LocalRotation.w
      value: 1
      objectReference: {fileID: 0}
    - target: {fileID: 1687638280946574110, guid: 135efcaab013b0e428013bcda69b4e52,
        type: 3}
      propertyPath: m_RootOrder
      value: 10
      objectReference: {fileID: 0}
    - target: {fileID: 1687638280946574110, guid: 135efcaab013b0e428013bcda69b4e52,
        type: 3}
      propertyPath: m_LocalEulerAnglesHint.x
      value: 0
      objectReference: {fileID: 0}
    - target: {fileID: 1687638280946574110, guid: 135efcaab013b0e428013bcda69b4e52,
        type: 3}
      propertyPath: m_LocalEulerAnglesHint.y
      value: 0
      objectReference: {fileID: 0}
    - target: {fileID: 1687638280946574110, guid: 135efcaab013b0e428013bcda69b4e52,
        type: 3}
      propertyPath: m_LocalEulerAnglesHint.z
      value: 0
      objectReference: {fileID: 0}
    m_RemovedComponents: []
  m_SourcePrefab: {fileID: 100100000, guid: 135efcaab013b0e428013bcda69b4e52, type: 3}
--- !u!1001 &411761235
PrefabInstance:
  m_ObjectHideFlags: 0
  serializedVersion: 2
  m_Modification:
    m_TransformParent: {fileID: 0}
    m_Modifications:
    - target: {fileID: 1687638280946574106, guid: 135efcaab013b0e428013bcda69b4e52,
        type: 3}
      propertyPath: m_Name
      value: Platform_1 (1)
      objectReference: {fileID: 0}
    - target: {fileID: 1687638280946574110, guid: 135efcaab013b0e428013bcda69b4e52,
        type: 3}
      propertyPath: m_LocalPosition.x
      value: 95
      objectReference: {fileID: 0}
    - target: {fileID: 1687638280946574110, guid: 135efcaab013b0e428013bcda69b4e52,
        type: 3}
      propertyPath: m_LocalPosition.y
      value: 0
      objectReference: {fileID: 0}
    - target: {fileID: 1687638280946574110, guid: 135efcaab013b0e428013bcda69b4e52,
        type: 3}
      propertyPath: m_LocalPosition.z
      value: 100
      objectReference: {fileID: 0}
    - target: {fileID: 1687638280946574110, guid: 135efcaab013b0e428013bcda69b4e52,
        type: 3}
      propertyPath: m_LocalRotation.x
      value: 0
      objectReference: {fileID: 0}
    - target: {fileID: 1687638280946574110, guid: 135efcaab013b0e428013bcda69b4e52,
        type: 3}
      propertyPath: m_LocalRotation.y
      value: 0
      objectReference: {fileID: 0}
    - target: {fileID: 1687638280946574110, guid: 135efcaab013b0e428013bcda69b4e52,
        type: 3}
      propertyPath: m_LocalRotation.z
      value: 0
      objectReference: {fileID: 0}
    - target: {fileID: 1687638280946574110, guid: 135efcaab013b0e428013bcda69b4e52,
        type: 3}
      propertyPath: m_LocalRotation.w
      value: 1
      objectReference: {fileID: 0}
    - target: {fileID: 1687638280946574110, guid: 135efcaab013b0e428013bcda69b4e52,
        type: 3}
      propertyPath: m_RootOrder
      value: 5
      objectReference: {fileID: 0}
    - target: {fileID: 1687638280946574110, guid: 135efcaab013b0e428013bcda69b4e52,
        type: 3}
      propertyPath: m_LocalEulerAnglesHint.x
      value: 0
      objectReference: {fileID: 0}
    - target: {fileID: 1687638280946574110, guid: 135efcaab013b0e428013bcda69b4e52,
        type: 3}
      propertyPath: m_LocalEulerAnglesHint.y
      value: 0
      objectReference: {fileID: 0}
    - target: {fileID: 1687638280946574110, guid: 135efcaab013b0e428013bcda69b4e52,
        type: 3}
      propertyPath: m_LocalEulerAnglesHint.z
      value: 0
      objectReference: {fileID: 0}
    m_RemovedComponents: []
  m_SourcePrefab: {fileID: 100100000, guid: 135efcaab013b0e428013bcda69b4e52, type: 3}
--- !u!1 &514124735
GameObject:
  m_ObjectHideFlags: 0
  m_CorrespondingSourceObject: {fileID: 0}
  m_PrefabInstance: {fileID: 0}
  m_PrefabAsset: {fileID: 0}
  serializedVersion: 6
  m_Component:
  - component: {fileID: 514124736}
  m_Layer: 0
  m_Name: PlatformChild
  m_TagString: Untagged
  m_Icon: {fileID: 0}
  m_NavMeshLayer: 0
  m_StaticEditorFlags: 0
  m_IsActive: 1
--- !u!4 &514124736
Transform:
  m_ObjectHideFlags: 0
  m_CorrespondingSourceObject: {fileID: 0}
  m_PrefabInstance: {fileID: 0}
  m_PrefabAsset: {fileID: 0}
  m_GameObject: {fileID: 514124735}
  m_LocalRotation: {x: 0, y: 0, z: 0, w: 1}
  m_LocalPosition: {x: 0, y: 0, z: 0}
  m_LocalScale: {x: 1, y: 1, z: 1}
  m_Children: []
  m_Father: {fileID: 726103217}
  m_RootOrder: 0
  m_LocalEulerAnglesHint: {x: 0, y: 0, z: 0}
--- !u!1 &690043770
GameObject:
  m_ObjectHideFlags: 0
  m_CorrespondingSourceObject: {fileID: 0}
  m_PrefabInstance: {fileID: 0}
  m_PrefabAsset: {fileID: 0}
  serializedVersion: 6
  m_Component:
  - component: {fileID: 690043771}
  m_Layer: 0
  m_Name: PlatformChild
  m_TagString: Untagged
  m_Icon: {fileID: 0}
  m_NavMeshLayer: 0
  m_StaticEditorFlags: 0
  m_IsActive: 1
--- !u!4 &690043771
Transform:
  m_ObjectHideFlags: 0
  m_CorrespondingSourceObject: {fileID: 0}
  m_PrefabInstance: {fileID: 0}
  m_PrefabAsset: {fileID: 0}
  m_GameObject: {fileID: 690043770}
  m_LocalRotation: {x: -0, y: -0, z: -0, w: 1}
  m_LocalPosition: {x: 6, y: 0, z: -6}
  m_LocalScale: {x: 1, y: 1, z: 1}
  m_Children: []
  m_Father: {fileID: 1771075405}
  m_RootOrder: 0
  m_LocalEulerAnglesHint: {x: 0, y: 0, z: 0}
--- !u!4 &726103217 stripped
Transform:
  m_CorrespondingSourceObject: {fileID: 6089243469190071648, guid: a282b091307c63d4fbe8bb829710f651,
    type: 3}
  m_PrefabInstance: {fileID: 2120356287}
  m_PrefabAsset: {fileID: 0}
--- !u!1001 &997694786
PrefabInstance:
  m_ObjectHideFlags: 0
  serializedVersion: 2
  m_Modification:
    m_TransformParent: {fileID: 0}
    m_Modifications:
    - target: {fileID: 6130134291527083340, guid: ad12ae0bbccfe33439e15091ac0d0745,
        type: 3}
      propertyPath: m_LocalPosition.x
      value: 95
      objectReference: {fileID: 0}
    - target: {fileID: 6130134291527083340, guid: ad12ae0bbccfe33439e15091ac0d0745,
        type: 3}
      propertyPath: m_LocalPosition.y
      value: 1
      objectReference: {fileID: 0}
    - target: {fileID: 6130134291527083340, guid: ad12ae0bbccfe33439e15091ac0d0745,
        type: 3}
      propertyPath: m_LocalPosition.z
      value: 100
      objectReference: {fileID: 0}
    - target: {fileID: 6130134291527083340, guid: ad12ae0bbccfe33439e15091ac0d0745,
        type: 3}
      propertyPath: m_LocalRotation.x
      value: 0
      objectReference: {fileID: 0}
    - target: {fileID: 6130134291527083340, guid: ad12ae0bbccfe33439e15091ac0d0745,
        type: 3}
      propertyPath: m_LocalRotation.y
      value: 0
      objectReference: {fileID: 0}
    - target: {fileID: 6130134291527083340, guid: ad12ae0bbccfe33439e15091ac0d0745,
        type: 3}
      propertyPath: m_LocalRotation.z
      value: 0
      objectReference: {fileID: 0}
    - target: {fileID: 6130134291527083340, guid: ad12ae0bbccfe33439e15091ac0d0745,
        type: 3}
      propertyPath: m_LocalRotation.w
      value: 1
      objectReference: {fileID: 0}
    - target: {fileID: 6130134291527083340, guid: ad12ae0bbccfe33439e15091ac0d0745,
        type: 3}
      propertyPath: m_RootOrder
      value: 4
      objectReference: {fileID: 0}
    - target: {fileID: 6130134291527083340, guid: ad12ae0bbccfe33439e15091ac0d0745,
        type: 3}
      propertyPath: m_LocalEulerAnglesHint.x
      value: 0
      objectReference: {fileID: 0}
    - target: {fileID: 6130134291527083340, guid: ad12ae0bbccfe33439e15091ac0d0745,
        type: 3}
      propertyPath: m_LocalEulerAnglesHint.y
      value: 0
      objectReference: {fileID: 0}
    - target: {fileID: 6130134291527083340, guid: ad12ae0bbccfe33439e15091ac0d0745,
        type: 3}
      propertyPath: m_LocalEulerAnglesHint.z
      value: 0
      objectReference: {fileID: 0}
    - target: {fileID: 6130134291527083376, guid: ad12ae0bbccfe33439e15091ac0d0745,
        type: 3}
      propertyPath: m_Name
      value: Sphere
      objectReference: {fileID: 0}
    m_RemovedComponents: []
  m_SourcePrefab: {fileID: 100100000, guid: ad12ae0bbccfe33439e15091ac0d0745, type: 3}
--- !u!1001 &1576770787
PrefabInstance:
  m_ObjectHideFlags: 0
  serializedVersion: 2
  m_Modification:
    m_TransformParent: {fileID: 0}
    m_Modifications:
    - target: {fileID: 6089243469190071648, guid: a282b091307c63d4fbe8bb829710f651,
        type: 3}
      propertyPath: m_LocalPosition.x
      value: 0
      objectReference: {fileID: 0}
    - target: {fileID: 6089243469190071648, guid: a282b091307c63d4fbe8bb829710f651,
        type: 3}
      propertyPath: m_LocalPosition.y
      value: 0
      objectReference: {fileID: 0}
    - target: {fileID: 6089243469190071648, guid: a282b091307c63d4fbe8bb829710f651,
        type: 3}
      propertyPath: m_LocalPosition.z
      value: 130
      objectReference: {fileID: 0}
    - target: {fileID: 6089243469190071648, guid: a282b091307c63d4fbe8bb829710f651,
        type: 3}
      propertyPath: m_LocalRotation.x
      value: 0
      objectReference: {fileID: 0}
    - target: {fileID: 6089243469190071648, guid: a282b091307c63d4fbe8bb829710f651,
        type: 3}
      propertyPath: m_LocalRotation.y
      value: 0
      objectReference: {fileID: 0}
    - target: {fileID: 6089243469190071648, guid: a282b091307c63d4fbe8bb829710f651,
        type: 3}
      propertyPath: m_LocalRotation.z
      value: 0
      objectReference: {fileID: 0}
    - target: {fileID: 6089243469190071648, guid: a282b091307c63d4fbe8bb829710f651,
        type: 3}
      propertyPath: m_LocalRotation.w
      value: 1
      objectReference: {fileID: 0}
    - target: {fileID: 6089243469190071648, guid: a282b091307c63d4fbe8bb829710f651,
        type: 3}
      propertyPath: m_RootOrder
      value: 3
      objectReference: {fileID: 0}
    - target: {fileID: 6089243469190071648, guid: a282b091307c63d4fbe8bb829710f651,
        type: 3}
      propertyPath: m_LocalEulerAnglesHint.x
      value: 0
      objectReference: {fileID: 0}
    - target: {fileID: 6089243469190071648, guid: a282b091307c63d4fbe8bb829710f651,
        type: 3}
      propertyPath: m_LocalEulerAnglesHint.y
      value: 0
      objectReference: {fileID: 0}
    - target: {fileID: 6089243469190071648, guid: a282b091307c63d4fbe8bb829710f651,
        type: 3}
      propertyPath: m_LocalEulerAnglesHint.z
      value: 0
      objectReference: {fileID: 0}
    - target: {fileID: 6089243469190071650, guid: a282b091307c63d4fbe8bb829710f651,
        type: 3}
      propertyPath: m_CollisionDetection
      value: 0
      objectReference: {fileID: 0}
    - target: {fileID: 6089243469190071650, guid: a282b091307c63d4fbe8bb829710f651,
        type: 3}
      propertyPath: m_IsKinematic
      value: 0
      objectReference: {fileID: 0}
    - target: {fileID: 6089243469190071660, guid: a282b091307c63d4fbe8bb829710f651,
        type: 3}
      propertyPath: m_Name
      value: Moving_Platform_A1 (1)
      objectReference: {fileID: 0}
    - target: {fileID: 6089243469190071663, guid: a282b091307c63d4fbe8bb829710f651,
        type: 3}
      propertyPath: m_Material
      value: 
      objectReference: {fileID: 13400000, guid: 9e27fcf735a9b784b9c94d21a3194cbe,
        type: 2}
    m_RemovedComponents: []
  m_SourcePrefab: {fileID: 100100000, guid: a282b091307c63d4fbe8bb829710f651, type: 3}
--- !u!1 &1746066383
GameObject:
  m_ObjectHideFlags: 0
  m_CorrespondingSourceObject: {fileID: 0}
  m_PrefabInstance: {fileID: 0}
  m_PrefabAsset: {fileID: 0}
  serializedVersion: 6
  m_Component:
  - component: {fileID: 1746066385}
  - component: {fileID: 1746066384}
  m_Layer: 0
  m_Name: Directional Light
  m_TagString: Untagged
  m_Icon: {fileID: 0}
  m_NavMeshLayer: 0
  m_StaticEditorFlags: 0
  m_IsActive: 1
--- !u!108 &1746066384
Light:
  m_ObjectHideFlags: 0
  m_CorrespondingSourceObject: {fileID: 0}
  m_PrefabInstance: {fileID: 0}
  m_PrefabAsset: {fileID: 0}
  m_GameObject: {fileID: 1746066383}
  m_Enabled: 1
  serializedVersion: 10
  m_Type: 1
  m_Shape: 0
  m_Color: {r: 1, g: 0.95686275, b: 0.8392157, a: 1}
  m_Intensity: 1
  m_Range: 10
  m_SpotAngle: 30
  m_InnerSpotAngle: 21.80208
  m_CookieSize: 10
  m_Shadows:
    m_Type: 2
    m_Resolution: -1
    m_CustomResolution: -1
    m_Strength: 1
    m_Bias: 0.05
    m_NormalBias: 0.4
    m_NearPlane: 0.2
    m_CullingMatrixOverride:
      e00: 1
      e01: 0
      e02: 0
      e03: 0
      e10: 0
      e11: 1
      e12: 0
      e13: 0
      e20: 0
      e21: 0
      e22: 1
      e23: 0
      e30: 0
      e31: 0
      e32: 0
      e33: 1
    m_UseCullingMatrixOverride: 0
  m_Cookie: {fileID: 0}
  m_DrawHalo: 0
  m_Flare: {fileID: 0}
  m_RenderMode: 0
  m_CullingMask:
    serializedVersion: 2
    m_Bits: 4294967295
  m_RenderingLayerMask: 1
  m_Lightmapping: 4
  m_LightShadowCasterMode: 0
  m_AreaSize: {x: 1, y: 1}
  m_BounceIntensity: 1
  m_ColorTemperature: 6570
  m_UseColorTemperature: 0
  m_BoundingSphereOverride: {x: 0, y: 0, z: 0, w: 0}
  m_UseBoundingSphereOverride: 0
  m_ShadowRadius: 0
  m_ShadowAngle: 0
--- !u!4 &1746066385
Transform:
  m_ObjectHideFlags: 0
  m_CorrespondingSourceObject: {fileID: 0}
  m_PrefabInstance: {fileID: 0}
  m_PrefabAsset: {fileID: 0}
  m_GameObject: {fileID: 1746066383}
  m_LocalRotation: {x: 0.40821788, y: -0.23456968, z: 0.10938163, w: 0.8754261}
  m_LocalPosition: {x: 0, y: 3, z: 0}
  m_LocalScale: {x: 1, y: 1, z: 1}
  m_Children: []
  m_Father: {fileID: 0}
  m_RootOrder: 11
  m_LocalEulerAnglesHint: {x: 50, y: -30, z: 0}
--- !u!4 &1771075405 stripped
Transform:
  m_CorrespondingSourceObject: {fileID: 6089243469190071648, guid: a282b091307c63d4fbe8bb829710f651,
    type: 3}
  m_PrefabInstance: {fileID: 1576770787}
  m_PrefabAsset: {fileID: 0}
--- !u!1001 &1806315737
PrefabInstance:
  m_ObjectHideFlags: 0
  serializedVersion: 2
  m_Modification:
    m_TransformParent: {fileID: 0}
    m_Modifications:
    - target: {fileID: 6130134291527083340, guid: ad12ae0bbccfe33439e15091ac0d0745,
        type: 3}
      propertyPath: m_LocalPosition.x
      value: 0
      objectReference: {fileID: 0}
    - target: {fileID: 6130134291527083340, guid: ad12ae0bbccfe33439e15091ac0d0745,
        type: 3}
      propertyPath: m_LocalPosition.y
      value: 1
      objectReference: {fileID: 0}
    - target: {fileID: 6130134291527083340, guid: ad12ae0bbccfe33439e15091ac0d0745,
        type: 3}
      propertyPath: m_LocalPosition.z
      value: 165
      objectReference: {fileID: 0}
    - target: {fileID: 6130134291527083340, guid: ad12ae0bbccfe33439e15091ac0d0745,
        type: 3}
      propertyPath: m_LocalRotation.x
      value: 0
      objectReference: {fileID: 0}
    - target: {fileID: 6130134291527083340, guid: ad12ae0bbccfe33439e15091ac0d0745,
        type: 3}
      propertyPath: m_LocalRotation.y
      value: 0
      objectReference: {fileID: 0}
    - target: {fileID: 6130134291527083340, guid: ad12ae0bbccfe33439e15091ac0d0745,
        type: 3}
      propertyPath: m_LocalRotation.z
      value: 0
      objectReference: {fileID: 0}
    - target: {fileID: 6130134291527083340, guid: ad12ae0bbccfe33439e15091ac0d0745,
        type: 3}
      propertyPath: m_LocalRotation.w
      value: 1
      objectReference: {fileID: 0}
    - target: {fileID: 6130134291527083340, guid: ad12ae0bbccfe33439e15091ac0d0745,
        type: 3}
      propertyPath: m_RootOrder
      value: 2
      objectReference: {fileID: 0}
    - target: {fileID: 6130134291527083340, guid: ad12ae0bbccfe33439e15091ac0d0745,
        type: 3}
      propertyPath: m_LocalEulerAnglesHint.x
      value: 0
      objectReference: {fileID: 0}
    - target: {fileID: 6130134291527083340, guid: ad12ae0bbccfe33439e15091ac0d0745,
        type: 3}
      propertyPath: m_LocalEulerAnglesHint.y
      value: 0
      objectReference: {fileID: 0}
    - target: {fileID: 6130134291527083340, guid: ad12ae0bbccfe33439e15091ac0d0745,
        type: 3}
      propertyPath: m_LocalEulerAnglesHint.z
      value: 0
      objectReference: {fileID: 0}
    - target: {fileID: 6130134291527083376, guid: ad12ae0bbccfe33439e15091ac0d0745,
        type: 3}
      propertyPath: m_Name
      value: Sphere (1)
      objectReference: {fileID: 0}
    m_RemovedComponents: []
  m_SourcePrefab: {fileID: 100100000, guid: ad12ae0bbccfe33439e15091ac0d0745, type: 3}
--- !u!1001 &1829930408
PrefabInstance:
  m_ObjectHideFlags: 0
  serializedVersion: 2
  m_Modification:
    m_TransformParent: {fileID: 0}
    m_Modifications:
    - target: {fileID: 6359347243077746961, guid: 24bc123b903366c4d95bfcef949ccf53,
        type: 3}
      propertyPath: m_Name
      value: Platform_2 (1)
      objectReference: {fileID: 0}
    - target: {fileID: 6359347243077746965, guid: 24bc123b903366c4d95bfcef949ccf53,
        type: 3}
      propertyPath: m_LocalPosition.x
      value: 0
      objectReference: {fileID: 0}
    - target: {fileID: 6359347243077746965, guid: 24bc123b903366c4d95bfcef949ccf53,
        type: 3}
      propertyPath: m_LocalPosition.y
      value: 0
      objectReference: {fileID: 0}
    - target: {fileID: 6359347243077746965, guid: 24bc123b903366c4d95bfcef949ccf53,
        type: 3}
      propertyPath: m_LocalPosition.z
      value: 165
      objectReference: {fileID: 0}
    - target: {fileID: 6359347243077746965, guid: 24bc123b903366c4d95bfcef949ccf53,
        type: 3}
      propertyPath: m_LocalRotation.x
      value: 0
      objectReference: {fileID: 0}
    - target: {fileID: 6359347243077746965, guid: 24bc123b903366c4d95bfcef949ccf53,
        type: 3}
      propertyPath: m_LocalRotation.y
      value: 0
      objectReference: {fileID: 0}
    - target: {fileID: 6359347243077746965, guid: 24bc123b903366c4d95bfcef949ccf53,
        type: 3}
      propertyPath: m_LocalRotation.z
      value: 0
      objectReference: {fileID: 0}
    - target: {fileID: 6359347243077746965, guid: 24bc123b903366c4d95bfcef949ccf53,
        type: 3}
      propertyPath: m_LocalRotation.w
      value: 1
      objectReference: {fileID: 0}
    - target: {fileID: 6359347243077746965, guid: 24bc123b903366c4d95bfcef949ccf53,
        type: 3}
      propertyPath: m_RootOrder
      value: 1
      objectReference: {fileID: 0}
    - target: {fileID: 6359347243077746965, guid: 24bc123b903366c4d95bfcef949ccf53,
        type: 3}
      propertyPath: m_LocalEulerAnglesHint.x
      value: 0
      objectReference: {fileID: 0}
    - target: {fileID: 6359347243077746965, guid: 24bc123b903366c4d95bfcef949ccf53,
        type: 3}
      propertyPath: m_LocalEulerAnglesHint.y
      value: 0
      objectReference: {fileID: 0}
    - target: {fileID: 6359347243077746965, guid: 24bc123b903366c4d95bfcef949ccf53,
        type: 3}
      propertyPath: m_LocalEulerAnglesHint.z
      value: 0
      objectReference: {fileID: 0}
    m_RemovedComponents: []
  m_SourcePrefab: {fileID: 100100000, guid: 24bc123b903366c4d95bfcef949ccf53, type: 3}
--- !u!1001 &2120356287
PrefabInstance:
  m_ObjectHideFlags: 0
  serializedVersion: 2
  m_Modification:
    m_TransformParent: {fileID: 0}
    m_Modifications:
    - target: {fileID: 6089243469190071648, guid: a282b091307c63d4fbe8bb829710f651,
        type: 3}
      propertyPath: m_LocalPosition.x
      value: 30
      objectReference: {fileID: 0}
    - target: {fileID: 6089243469190071648, guid: a282b091307c63d4fbe8bb829710f651,
        type: 3}
      propertyPath: m_LocalPosition.y
      value: 0
      objectReference: {fileID: 0}
    - target: {fileID: 6089243469190071648, guid: a282b091307c63d4fbe8bb829710f651,
        type: 3}
      propertyPath: m_LocalPosition.z
      value: 100
      objectReference: {fileID: 0}
    - target: {fileID: 6089243469190071648, guid: a282b091307c63d4fbe8bb829710f651,
        type: 3}
      propertyPath: m_LocalRotation.x
      value: 0
      objectReference: {fileID: 0}
    - target: {fileID: 6089243469190071648, guid: a282b091307c63d4fbe8bb829710f651,
        type: 3}
      propertyPath: m_LocalRotation.y
      value: 0
      objectReference: {fileID: 0}
    - target: {fileID: 6089243469190071648, guid: a282b091307c63d4fbe8bb829710f651,
        type: 3}
      propertyPath: m_LocalRotation.z
      value: 0
      objectReference: {fileID: 0}
    - target: {fileID: 6089243469190071648, guid: a282b091307c63d4fbe8bb829710f651,
        type: 3}
      propertyPath: m_LocalRotation.w
      value: 1
      objectReference: {fileID: 0}
    - target: {fileID: 6089243469190071648, guid: a282b091307c63d4fbe8bb829710f651,
        type: 3}
      propertyPath: m_RootOrder
      value: 6
      objectReference: {fileID: 0}
    - target: {fileID: 6089243469190071648, guid: a282b091307c63d4fbe8bb829710f651,
        type: 3}
      propertyPath: m_LocalEulerAnglesHint.x
      value: 0
      objectReference: {fileID: 0}
    - target: {fileID: 6089243469190071648, guid: a282b091307c63d4fbe8bb829710f651,
        type: 3}
      propertyPath: m_LocalEulerAnglesHint.y
      value: 0
      objectReference: {fileID: 0}
    - target: {fileID: 6089243469190071648, guid: a282b091307c63d4fbe8bb829710f651,
        type: 3}
      propertyPath: m_LocalEulerAnglesHint.z
      value: 0
      objectReference: {fileID: 0}
    - target: {fileID: 6089243469190071650, guid: a282b091307c63d4fbe8bb829710f651,
        type: 3}
      propertyPath: m_CollisionDetection
      value: 0
      objectReference: {fileID: 0}
    - target: {fileID: 6089243469190071650, guid: a282b091307c63d4fbe8bb829710f651,
        type: 3}
      propertyPath: m_IsKinematic
      value: 0
      objectReference: {fileID: 0}
    - target: {fileID: 6089243469190071651, guid: a282b091307c63d4fbe8bb829710f651,
        type: 3}
      propertyPath: modifier
      value: 
      objectReference: {fileID: 11400000, guid: 21100d957f8a2c04b883f005268b7d38,
        type: 2}
    - target: {fileID: 6089243469190071660, guid: a282b091307c63d4fbe8bb829710f651,
        type: 3}
      propertyPath: m_Name
      value: Moving_Platform_A1
      objectReference: {fileID: 0}
    - target: {fileID: 6089243469190071663, guid: a282b091307c63d4fbe8bb829710f651,
        type: 3}
      propertyPath: m_Material
      value: 
      objectReference: {fileID: 13400000, guid: 9e27fcf735a9b784b9c94d21a3194cbe,
        type: 2}
    m_RemovedComponents: []
  m_SourcePrefab: {fileID: 100100000, guid: a282b091307c63d4fbe8bb829710f651, type: 3}
--- !u!1001 &691652327258202032
PrefabInstance:
  m_ObjectHideFlags: 0
  serializedVersion: 2
  m_Modification:
    m_TransformParent: {fileID: 0}
    m_Modifications:
    - target: {fileID: 2229998919087604689, guid: 5c75535ae059ee6419c81bc85d97df67,
        type: 3}
      propertyPath: m_LocalPosition.x
      value: 0
      objectReference: {fileID: 0}
    - target: {fileID: 2229998919087604689, guid: 5c75535ae059ee6419c81bc85d97df67,
        type: 3}
      propertyPath: m_LocalPosition.y
      value: 0
      objectReference: {fileID: 0}
    - target: {fileID: 2229998919087604689, guid: 5c75535ae059ee6419c81bc85d97df67,
        type: 3}
      propertyPath: m_LocalPosition.z
      value: 100
      objectReference: {fileID: 0}
    - target: {fileID: 2229998919087604689, guid: 5c75535ae059ee6419c81bc85d97df67,
        type: 3}
      propertyPath: m_LocalRotation.x
      value: 0
      objectReference: {fileID: 0}
    - target: {fileID: 2229998919087604689, guid: 5c75535ae059ee6419c81bc85d97df67,
        type: 3}
      propertyPath: m_LocalRotation.y
      value: 0
      objectReference: {fileID: 0}
    - target: {fileID: 2229998919087604689, guid: 5c75535ae059ee6419c81bc85d97df67,
        type: 3}
      propertyPath: m_LocalRotation.z
      value: 0
      objectReference: {fileID: 0}
    - target: {fileID: 2229998919087604689, guid: 5c75535ae059ee6419c81bc85d97df67,
        type: 3}
      propertyPath: m_LocalRotation.w
      value: 1
      objectReference: {fileID: 0}
    - target: {fileID: 2229998919087604689, guid: 5c75535ae059ee6419c81bc85d97df67,
        type: 3}
      propertyPath: m_RootOrder
      value: 8
      objectReference: {fileID: 0}
    - target: {fileID: 2229998919087604689, guid: 5c75535ae059ee6419c81bc85d97df67,
        type: 3}
      propertyPath: m_LocalEulerAnglesHint.x
      value: 0
      objectReference: {fileID: 0}
    - target: {fileID: 2229998919087604689, guid: 5c75535ae059ee6419c81bc85d97df67,
        type: 3}
      propertyPath: m_LocalEulerAnglesHint.y
      value: 0
      objectReference: {fileID: 0}
    - target: {fileID: 2229998919087604689, guid: 5c75535ae059ee6419c81bc85d97df67,
        type: 3}
      propertyPath: m_LocalEulerAnglesHint.z
      value: 0
      objectReference: {fileID: 0}
    - target: {fileID: 2229998919087604693, guid: 5c75535ae059ee6419c81bc85d97df67,
        type: 3}
      propertyPath: m_Name
      value: Platform_3
      objectReference: {fileID: 0}
    m_RemovedComponents: []
  m_SourcePrefab: {fileID: 100100000, guid: 5c75535ae059ee6419c81bc85d97df67, type: 3}
--- !u!1001 &4134716597107331358
PrefabInstance:
  m_ObjectHideFlags: 0
  serializedVersion: 2
  m_Modification:
    m_TransformParent: {fileID: 0}
    m_Modifications:
    - target: {fileID: 6359347243077746961, guid: 24bc123b903366c4d95bfcef949ccf53,
        type: 3}
      propertyPath: m_Name
      value: Platform_2
      objectReference: {fileID: 0}
    - target: {fileID: 6359347243077746965, guid: 24bc123b903366c4d95bfcef949ccf53,
        type: 3}
      propertyPath: m_LocalPosition.x
      value: 0
      objectReference: {fileID: 0}
    - target: {fileID: 6359347243077746965, guid: 24bc123b903366c4d95bfcef949ccf53,
        type: 3}
      propertyPath: m_LocalPosition.y
      value: 0
      objectReference: {fileID: 0}
    - target: {fileID: 6359347243077746965, guid: 24bc123b903366c4d95bfcef949ccf53,
        type: 3}
      propertyPath: m_LocalPosition.z
      value: 20
      objectReference: {fileID: 0}
    - target: {fileID: 6359347243077746965, guid: 24bc123b903366c4d95bfcef949ccf53,
        type: 3}
      propertyPath: m_LocalRotation.x
      value: 0
      objectReference: {fileID: 0}
    - target: {fileID: 6359347243077746965, guid: 24bc123b903366c4d95bfcef949ccf53,
        type: 3}
      propertyPath: m_LocalRotation.y
      value: 0
      objectReference: {fileID: 0}
    - target: {fileID: 6359347243077746965, guid: 24bc123b903366c4d95bfcef949ccf53,
        type: 3}
      propertyPath: m_LocalRotation.z
      value: 0
      objectReference: {fileID: 0}
    - target: {fileID: 6359347243077746965, guid: 24bc123b903366c4d95bfcef949ccf53,
        type: 3}
      propertyPath: m_LocalRotation.w
      value: 1
      objectReference: {fileID: 0}
    - target: {fileID: 6359347243077746965, guid: 24bc123b903366c4d95bfcef949ccf53,
        type: 3}
      propertyPath: m_RootOrder
      value: 9
      objectReference: {fileID: 0}
    - target: {fileID: 6359347243077746965, guid: 24bc123b903366c4d95bfcef949ccf53,
        type: 3}
      propertyPath: m_LocalEulerAnglesHint.x
      value: 0
      objectReference: {fileID: 0}
    - target: {fileID: 6359347243077746965, guid: 24bc123b903366c4d95bfcef949ccf53,
        type: 3}
      propertyPath: m_LocalEulerAnglesHint.y
      value: 0
      objectReference: {fileID: 0}
    - target: {fileID: 6359347243077746965, guid: 24bc123b903366c4d95bfcef949ccf53,
        type: 3}
      propertyPath: m_LocalEulerAnglesHint.z
      value: 0
      objectReference: {fileID: 0}
    m_RemovedComponents: []
  m_SourcePrefab: {fileID: 100100000, guid: 24bc123b903366c4d95bfcef949ccf53, type: 3}
--- !u!1001 &6446954406855231496
PrefabInstance:
  m_ObjectHideFlags: 0
  serializedVersion: 2
  m_Modification:
    m_TransformParent: {fileID: 0}
    m_Modifications:
    - target: {fileID: 6446954406631255605, guid: 79decc851bd533843b33007f84a0a22f,
        type: 3}
      propertyPath: m_Name
      value: Booster
      objectReference: {fileID: 0}
    - target: {fileID: 6446954406631255626, guid: 79decc851bd533843b33007f84a0a22f,
        type: 3}
      propertyPath: m_LocalPosition.x
      value: 0
      objectReference: {fileID: 0}
    - target: {fileID: 6446954406631255626, guid: 79decc851bd533843b33007f84a0a22f,
        type: 3}
      propertyPath: m_LocalPosition.y
      value: 0.2
      objectReference: {fileID: 0}
    - target: {fileID: 6446954406631255626, guid: 79decc851bd533843b33007f84a0a22f,
        type: 3}
      propertyPath: m_LocalPosition.z
      value: 20
      objectReference: {fileID: 0}
    - target: {fileID: 6446954406631255626, guid: 79decc851bd533843b33007f84a0a22f,
        type: 3}
      propertyPath: m_LocalRotation.x
      value: 0
      objectReference: {fileID: 0}
    - target: {fileID: 6446954406631255626, guid: 79decc851bd533843b33007f84a0a22f,
        type: 3}
      propertyPath: m_LocalRotation.y
      value: 0
      objectReference: {fileID: 0}
    - target: {fileID: 6446954406631255626, guid: 79decc851bd533843b33007f84a0a22f,
        type: 3}
      propertyPath: m_LocalRotation.z
      value: 0
      objectReference: {fileID: 0}
    - target: {fileID: 6446954406631255626, guid: 79decc851bd533843b33007f84a0a22f,
        type: 3}
      propertyPath: m_LocalRotation.w
      value: 1
      objectReference: {fileID: 0}
    - target: {fileID: 6446954406631255626, guid: 79decc851bd533843b33007f84a0a22f,
        type: 3}
      propertyPath: m_RootOrder
      value: 12
      objectReference: {fileID: 0}
    - target: {fileID: 6446954406631255626, guid: 79decc851bd533843b33007f84a0a22f,
        type: 3}
      propertyPath: m_LocalEulerAnglesHint.x
      value: 0
      objectReference: {fileID: 0}
    - target: {fileID: 6446954406631255626, guid: 79decc851bd533843b33007f84a0a22f,
        type: 3}
      propertyPath: m_LocalEulerAnglesHint.y
      value: 0
      objectReference: {fileID: 0}
    - target: {fileID: 6446954406631255626, guid: 79decc851bd533843b33007f84a0a22f,
        type: 3}
      propertyPath: m_LocalEulerAnglesHint.z
      value: 0
      objectReference: {fileID: 0}
    m_RemovedComponents: []
  m_SourcePrefab: {fileID: 100100000, guid: 79decc851bd533843b33007f84a0a22f, type: 3}
